{
  "type": "service_account",
  "project_id": "bot-platform-a5a5a",
  "private_key_id": "ceb56737e780c6b59708024281ceefa0b6352aa9",
  "private_key": "-----BEGIN PRIVATE KEY-----\nMIIEvQIBADANBgkqhkiG9w0BAQEFAASCBKcwggSjAgEAAoIBAQCxOvUGOnT9YrW8\n0x5kY3jTfC8dtprTUVTNd3rAtlK5R9ntOPll2BS2J9BMpVJBUhz38WlXvl8RJNNs\nNfyh08MWAa8b5lnVdCrJz9pT+k0akZzmndFGAxYYJCem/NmTdpfPZsRahdOirYiM\nHlCa+XMqooK5VQ/mFkay7DANRGnC2IiNdAHKQrU9ybTTCvWz0Pctj1M5dolRNSh2\nkG6VM21yzci3FOTFEG/cWeqAI53d3WDgRL4vZ5ExfUNB3BU8iIvoCMupwL6PdoSd\nseOvSmT37DSbzdmMa8o8Dt+oydVRtwSmWsofNHAyTBpi3j3K177DCBPTSGNXaHLO\ndcz+5JNDAgMBAAECggEAQu1FLytvF2qpv5soDHfl3lM0ha956xf5Arg+Ujzno1En\nUiZkQ9nkBF+nkPITTFiCWP1AryJUSyiRcHk4pDHQJ2TOaCZGQU2jhN9pjrHkYQag\n7hOlvh8XPlmU4cH1NfMgY/Fmb9q+r12BxYwDG2rc2zpQTEV7ggNiglmf0brGh43T\nq2W0rjJWB1PEhWVwJTu1wAFBl3rhz0JTmfGPF4OmjP+P3YAiveaZ9DaioCkMiMwv\nAibX4vc/L2QiwyLFptVORM1Kx2N9ZSAgAUEy5CxzgT4ulkQWBH2uQeNoZkrKKRQb\nQBgzknqEZ/yu+gTpEoR3uSaDL25LXmdEfZSu5oMLLQKBgQD5fjd16xEt4QlVk1vB\nS6vKMMSwMiZ9pmWmKJmul+DmSAdFa3evMaR1gFDk0DrlrQBckyNeq2xqkl8oBkCU\n86LtXS0s9Ap/+r9Dwu/qhN4Nt9P2kqPmtUWXUH+VBHW4juaqvbXO6xpihrponnbp\nE6bLjSqEPt33qq0Jq0jJAq40xQKBgQC12kQPfvEahox6PBca7sucokVGZ8gbKUKZ\nNWvBpiUxySGqiPBY3+WldRZvWUKeIsHIa9VEKva/dscR4lkhcbMVFD3t2F3shoS1\n/e46lop8mx7ZSQFwNavTet6skSteGcIUAwmvJEuNCVzrXF/kgQOG2usFKpyXZFEq\n/eosJN14ZwKBgAJdNM9UO+RwZnM+IzdwrR8MWUDGKOE1626oodQqskHcWt1IiGjL\nkqBeZ+XTJ0u32PIHnuUtwKg93NL3RDNlH50aLexoH5VY3ekZdsaFHcmJfWOvvgfY\nneEyLRNPaIIoMH1bsNZWGfjnB+sn3T6WJhV1r/py0g2fu2YFDnqBIP91AoGAIpc7\n7v6kefkx62ZWtsbJcCflqXjANXppsp7YumMSHCA4CSo3HZCpLAnTlKaT52SRG8B3\nNpo9iTncr+gwMA5ilBXfmchYRU9pGv0MPZS5Du6qtYYPgfqTjoyGoqiSaTnZEtlp\nFCmBPXiUdiiCDQMFWrd1kOwEEUABuH3H91Gj1u0CgYEA5N3hnjcI3Lkq5VXmwEAu\neyfLYYeEvHSjLbloP2M5w01Vw+SQZZK22ZwfFY63VcTSfcC/Hr1sg88rUqrPkyI0\novk0b7uJzRpgSziMJPJzJNpDUsxkvAtsQY0pMar2pEdhg+QZzqvbBHtfkc20AS61\nI2/Grgwe+o3zVSsIEYlryrw=\n-----END PRIVATE KEY-----\n",
  "client_email": "firebase-adminsdk-e50tf@bot-platform-a5a5a.iam.gserviceaccount.com",
  "client_id": "117764201785749894834",
  "auth_uri": "https://accounts.google.com/o/oauth2/auth",
  "token_uri": "https://accounts.google.com/o/oauth2/token",
  "auth_provider_x509_cert_url": "https://www.googleapis.com/oauth2/v1/certs",
  "client_x509_cert_url": "https://www.googleapis.com/robot/v1/metadata/x509/firebase-adminsdk-e50tf%40bot-platform-a5a5a.iam.gserviceaccount.com"
}
