{
  "rules": {
    ".read": "auth.uid == 'QB4GAnBVpRS3NzXrbjfPMBdtwrt2'",
    "bots": {
      "$bot": {
        ".read": "root.child('bots/'+$bot+'/users/'+ auth.uid).exists()",
        ".write": "!data.exists() || root.child('bots/'+$bot+'/users/'+ auth.uid).exists()"
      }
    },
    "sidusers": {
			".read": "false",
      ".write": "true"
    },
    "isUpdate": {
      "$bot": {
        ".read": "false",
      	".write": "root.child('bots/'+$bot+'/users/'+ auth.uid).exists()"
      }
    }
  }
}